{
    "hh_cba_vbf_0_signal_ipip_d0sig_high": {
        "channels": ["1p0n_1p0n"],
        "categories": "vbf_0_high_sr",
        "regions": "SR"}, 

    "hh_cba_vbf_0_signal_ipip_d0sig_low": {
        "channels": ["1p0n_1p0n"],
        "categories": "vbf_0_low_sr",
        "regions": "SR"},

    "hh_cba_vbf_0_signal_iprho_d0sigy_high": {
        "channels": ["1p0n_1p1n","1p1n_1p0n"],
        "categories": "vbf_0_high_sr",
        "regions": "SR"},

    "hh_cba_vbf_0_signal_iprho_d0sigy_low": {
        "channels": ["1p0n_1p1n","1p1n_1p0n"],
        "categories": "vbf_0_low_sr",
        "regions": "SR"},
  
    "hh_cba_vbf_0_signal_iprho_1pXn_high": {
        "channels": ["1p0n_1pXn","1pXn_1p0n"],
        "categories": "vbf_0_high_sr",
        "regions": "SR"},

    "hh_cba_vbf_0_signal_iprho_1pXn_low": {
        "channels": ["1p0n_1pXn","1pXn_1p0n"],
        "categories": "vbf_0_low_sr",
        "regions": "SR"},

    "hh_cba_vbf_0_signal_rhorho_y0y1_high": {
        "channels": ["1p1n_1p1n"],
        "categories": "vbf_0_high_sr",
        "regions": "SR"},

    "hh_cba_vbf_0_signal_rhorho_y0y1_low": {
        "channels": ["1p1n_1p1n"],
        "categories": "vbf_0_low_sr",
        "regions": "SR"}, 

    "hh_cba_vbf_0_signal_rhorho_1pXn_high": {
        "channels": ["1p1n_1pXn","1pXn_1p1n"],
        "categories": "vbf_0_high_sr",
        "regions": "SR"}, 

    "hh_cba_vbf_0_signal_rhorho_1pXn_low": {
        "channels": ["1p1n_1pXn","1pXn_1p1n"],
        "categories": "vbf_0_low_sr",
        "regions": "SR"},

    "hh_cba_vbf_0_signal_a1rho_high": {
        "channels": ["1p1n_3p0n","3p0n_1p1n"],
        "categories": "vbf_0_high_sr",
        "regions": "SR"}, 
  
    "hh_cba_vbf_0_signal_a1rho_low": {
        "channels": ["1p1n_3p0n","3p0n_1p1n"],
        "categories": "vbf_0_low_sr",
        "regions": "SR"},

    "hh_cba_vbf_1_signal_ipip_d0sig_high": {
        "channels": ["1p0n_1p0n"],
        "categories": "vbf_1_high_sr",
        "regions": "SR"}, 

    "hh_cba_vbf_1_signal_ipip_d0sig_low": {
        "channels": ["1p0n_1p0n"],
        "categories": "vbf_1_low_sr",
        "regions": "SR"},

    "hh_cba_vbf_1_signal_iprho_d0sigy_high": {
        "channels": ["1p0n_1p1n","1p1n_1p0n"],
        "categories": "vbf_1_high_sr",
        "regions": "SR"},

    "hh_cba_vbf_1_signal_iprho_d0sigy_low": {
        "channels": ["1p0n_1p1n","1p1n_1p0n"],
        "categories": "vbf_1_low_sr",
        "regions": "SR"},
  
    "hh_cba_vbf_1_signal_iprho_1pXn_high": {
        "channels": ["1p0n_1pXn","1pXn_1p0n"],
        "categories": "vbf_1_high_sr",
        "regions": "SR"},

    "hh_cba_vbf_1_signal_iprho_1pXn_low": {
        "channels": ["1p0n_1pXn","1pXn_1p0n"],
        "categories": "vbf_1_low_sr",
        "regions": "SR"},

    "hh_cba_vbf_1_signal_rhorho_y0y1_high": {
        "channels": ["1p1n_1p1n"],
        "categories": "vbf_1_high_sr",
        "regions": "SR"},

    "hh_cba_vbf_1_signal_rhorho_y0y1_low": {
        "channels": ["1p1n_1p1n"],
        "categories": "vbf_1_low_sr",
        "regions": "SR"}, 

    "hh_cba_vbf_1_signal_rhorho_1pXn_high": {
        "channels": ["1p1n_1pXn","1pXn_1p1n"],
        "categories": "vbf_1_high_sr",
        "regions": "SR"}, 

    "hh_cba_vbf_1_signal_rhorho_1pXn_low": {
        "channels": ["1p1n_1pXn","1pXn_1p1n"],
        "categories": "vbf_1_low_sr",
        "regions": "SR"},

    "hh_cba_vbf_1_signal_a1rho_high": {
        "channels": ["1p1n_3p0n","3p0n_1p1n"],
        "categories": "vbf_1_high_sr",
        "regions": "SR"}, 
  
    "hh_cba_vbf_1_signal_a1rho_low": {
        "channels": ["1p1n_3p0n","3p0n_1p1n"],
        "categories": "vbf_1_low_sr",
        "regions": "SR"},

    "hh_cba_boost_tight_signal_ipip_d0sig_high": {
        "channels": ["1p0n_1p0n"],
        "categories": "boost_tight_high_sr",  
        "regions": "SR"},
    
    "hh_cba_boost_tight_signal_ipip_d0sig_low": {
        "channels": ["1p0n_1p0n"],
        "categories": "boost_tight_low_sr",
        "regions": "SR"},

    "hh_cba_boost_tight_signal_iprho_d0sigy_high": {
        "channels": ["1p0n_1p1n","1p1n_1p0n"],
        "categories": "boost_tight_high_sr",
        "regions": "SR"},

    "hh_cba_boost_tight_signal_iprho_d0sigy_low": {
        "channels": ["1p0n_1p1n","1p1n_1p0n"],
        "categories": "boost_tight_low_sr",
        "regions": "SR"},

    "hh_cba_boost_tight_signal_iprho_1pXn_high": {
        "channels": ["1p0n_1pXn","1pXn_1p0n"],
        "categories": "boost_tight_high_sr",
        "regions": "SR"},

    "hh_cba_boost_tight_signal_iprho_1pXn_low": {
        "channels": ["1p0n_1pXn","1pXn_1p0n"],
        "categories": "boost_tight_low_sr",
        "regions": "SR"},

    "hh_cba_boost_tight_signal_rhorho_y0y1_high": {
        "channels": ["1p1n_1p1n"],
        "categories": "boost_tight_high_sr",
        "regions": "SR"},

    "hh_cba_boost_tight_signal_rhorho_y0y1_low": {
        "channels": ["1p1n_1p1n"],
        "categories": "boost_tight_low_sr",
        "regions": "SR"},

    "hh_cba_boost_tight_signal_rhorho_1pXn_high": {
        "channels": ["1p1n_1pXn","1pXn_1p1n"],
        "categories": "boost_tight_high_sr",
        "regions": "SR"},

    "hh_cba_boost_tight_signal_rhorho_1pXn_low": {
        "channels": ["1p1n_1pXn","1pXn_1p1n"],
        "categories": "boost_tight_low_sr",
        "regions": "SR"},
    
    "hh_cba_boost_tight_signal_a1rho_high": {
        "channels": ["1p1n_3p0n","3p0n_1p1n"],
        "categories": "boost_tight_high_sr",
        "regions": "SR"},

     "hh_cba_boost_tight_signal_a1rho_low": {
        "channels": ["1p1n_3p0n","3p0n_1p1n"],
        "categories": "boost_tight_low_sr",
        "regions": "SR"},

    "hh_cba_boost_loose_signal_ipip_d0sig_high": {
        "channels": ["1p0n_1p0n"],
        "categories": "boost_loose_high_sr",
        "regions": "SR"},
   
    "hh_cba_boost_loose_signal_ipip_d0sig_low": {
        "channels": ["1p0n_1p0n"],
        "categories": "boost_loose_low_sr",
        "regions": "SR"},

    "hh_cba_boost_loose_signal_iprho_d0sigy_high": {
        "channels": ["1p0n_1p1n","1p1n_1p0n"],
        "categories": "boost_loose_high_sr",
        "regions": "SR"},

    "hh_cba_boost_loose_signal_iprho_d0sigy_low": {
        "channels": ["1p0n_1p1n","1p1n_1p0n"],
        "categories": "boost_loose_low_sr",
        "regions": "SR"},

    "hh_cba_boost_loose_signal_iprho_1pXn_high": {
        "channels": ["1p0n_1pXn","1pXn_1p0n"],
        "categories": "boost_loose_high_sr",
        "regions": "SR"},

    "hh_cba_boost_loose_signal_iprho_1pXn_low": {
        "channels": ["1p0n_1pXn","1pXn_1p0n"],
        "categories": "boost_loose_low_sr",
        "regions": "SR"},

    "hh_cba_boost_loose_signal_rhorho_y0y1_high": {
        "channels": ["1p1n_1p1n"],
        "categories": "boost_loose_high_sr",
        "regions": "SR"},

    "hh_cba_boost_loose_signal_rhorho_y0y1_low": {
        "channels": ["1p1n_1p1n"],
        "categories": "boost_loose_low_sr",
        "regions": "SR"},

    "hh_cba_boost_loose_signal_rhorho_1pXn_high": {
        "channels": ["1p1n_1pXn","1pXn_1p1n"],
        "categories": "boost_loose_high_sr",
        "regions": "SR"},

    "hh_cba_boost_loose_signal_rhorho_1pXn_low": {
        "channels": ["1p1n_1pXn","1pXn_1p1n"],
        "categories": "boost_loose_low_sr",
        "regions": "SR"},

    "hh_cba_boost_loose_signal_a1rho_high": {
        "channels": ["1p1n_3p0n","3p0n_1p1n"],
        "categories": "boost_loose_high_sr",
        "regions": "SR"},

    "hh_cba_boost_loose_signal_a1rho_low": {
        "channels": ["1p1n_3p0n","3p0n_1p1n"],
        "categories": "boost_loose_low_sr",
        "regions": "SR"}

}
