{
  "mc16d": {
    "hh": [
      [
        363355, 
        4.3079416, 
        0.0
      ], 
      [
        363356, 
        2.19983005, 
        0.0
      ], 
      [
        363357, 
        6.7951, 
        0.0
      ], 
      [
        363358, 
        3.4328, 
        0.0
      ], 
      [
        363359, 
        24.708, 
        0.0
      ], 
      [
        363489, 
        11.419, 
        0.0
      ], 
      [
        363494, 
        0.60293, 
        0.0
      ], 
      [
        364250, 
        1.252, 
        0.0
      ], 
      [
        364253, 
        4.5765, 
        0.0
      ], 
      [
        364254, 
        12.501, 
        0.0
      ], 
      [
        364255, 
        3.2344, 
        0.0
      ], 
      [
        364288, 
        1.4484, 
        0.0
      ], 
      [
        364289, 
        2.9708, 
        0.0
      ], 
      [
        364290, 
        0.17238, 
        0.0
      ], 
      [
        410470, 
        452.34435839865904, 
        0.0
      ], 
      [
        410471, 
        379.507135201399, 
        0.0
      ], 
      [
        410644, 
        2.061459, 
        0.0
      ], 
      [
        410645, 
        1.28856558, 
        0.0
      ], 
      [
        410646, 
        35.84952, 
        0.0
      ], 
      [
        410647, 
        35.8467585, 
        0.0
      ], 
      [
        410658, 
        44.154726000000004, 
        0.0
      ], 
      [
        410659, 
        26.275157500000002, 
        0.0
      ], 
      [
        410155, 
        0.6008491200000001, 
        0.0
      ], 
      [
        410218, 
        0.04128768000000001, 
        0.0
      ], 
      [
        410219, 
        0.04128880000000001, 
        0.0
      ], 
      [
        410220, 
        0.0409416, 
        0.0
      ], 
      [
        412043, 
        0.010665, 
        0.0
      ], 
      [
        304014, 
        0.0016396, 
        0.0
      ], 
      [
        364156, 
        15317.8576551, 
        0.0
      ], 
      [
        364157, 
        2431.2040192439995, 
        0.0
      ], 
      [
        364158, 
        828.8801421516, 
        0.0
      ], 
      [
        364159, 
        618.5647247472, 
        0.0
      ], 
      [
        364160, 
        223.35841325951998, 
        0.0
      ], 
      [
        364161, 
        76.727973650328, 
        0.0
      ], 
      [
        364162, 
        197.79329214414, 
        0.0
      ], 
      [
        364163, 
        96.4494137376, 
        0.0
      ], 
      [
        364164, 
        36.345256660943996, 
        0.0
      ], 
      [
        364165, 
        38.29983516374399, 
        0.0
      ], 
      [
        364166, 
        22.395646627199998, 
        0.0
      ], 
      [
        364167, 
        8.768196432072001, 
        0.0
      ], 
      [
        364168, 
        14.558821199999999, 
        0.0
      ], 
      [
        364169, 
        1.19800296, 
        0.0
      ], 
      [
        364170, 
        15324.216355601999, 
        0.0
      ], 
      [
        364171, 
        2430.65632194, 
        0.0
      ], 
      [
        364172, 
        832.2037582319999, 
        0.0
      ], 
      [
        364173, 
        618.6973679686799, 
        0.0
      ], 
      [
        364174, 
        224.00317771524, 
        0.0
      ], 
      [
        364175, 
        94.88757384414, 
        0.0
      ], 
      [
        364176, 
        197.307201861, 
        0.0
      ], 
      [
        364177, 
        94.962584178, 
        0.0
      ], 
      [
        364178, 
        35.910950977439995, 
        0.0
      ], 
      [
        364179, 
        38.34053260883999, 
        0.0
      ], 
      [
        364180, 
        22.364320275989996, 
        0.0
      ], 
      [
        364181, 
        9.586344844691999, 
        0.0
      ], 
      [
        364182, 
        14.5985994, 
        0.0
      ], 
      [
        364183, 
        1.19761488, 
        0.0
      ], 
      [
        364184, 
        15324.88733622, 
        0.0
      ], 
      [
        364185, 
        2443.425880896, 
        0.0
      ], 
      [
        364186, 
        837.6280998624, 
        0.0
      ], 
      [
        364187, 
        619.44787491048, 
        0.0
      ], 
      [
        364188, 
        222.59530293461998, 
        0.0
      ], 
      [
        364189, 
        95.34031806222, 
        0.0
      ], 
      [
        364190, 
        197.35804480392, 
        0.0
      ], 
      [
        364191, 
        93.89560207103999, 
        0.0
      ], 
      [
        364192, 
        34.82262388836, 
        0.0
      ], 
      [
        364193, 
        39.281122066032, 
        0.0
      ], 
      [
        364194, 
        22.25461612374, 
        0.0
      ], 
      [
        364195, 
        9.490847272829999, 
        0.0
      ], 
      [
        364196, 
        14.603450399999998, 
        0.0
      ], 
      [
        364197, 
        1.1973238199999998, 
        0.0
      ], 
      [
        308096, 
        6.8063, 
        0.0
      ], 
      [
        308097, 
        6.7952, 
        0.0
      ], 
      [
        308098, 
        6.7976, 
        0.0
      ], 
      [
        345099, 
        6.6492745, 
        0.0
      ], 
      [
        345100, 
        7.355074320000001, 
        0.0
      ], 
      [
        345101, 
        17.1772272, 
        0.0
      ], 
      [
        345102, 
        9.02889937, 
        0.0
      ], 
      [
        364100, 
        1588.47417372, 
        0.0
      ], 
      [
        364101, 
        219.52125774179999, 
        0.0
      ], 
      [
        364102, 
        127.13037428804999, 
        0.0
      ], 
      [
        364103, 
        73.42295186688, 
        0.0
      ], 
      [
        364104, 
        20.90606833224, 
        0.0
      ], 
      [
        364105, 
        12.50542971664, 
        0.0
      ], 
      [
        364106, 
        23.30379340254, 
        0.0
      ], 
      [
        364107, 
        9.143665195889, 
        0.0
      ], 
      [
        364108, 
        6.076600896701999, 
        0.0
      ], 
      [
        364109, 
        4.6573670954888, 
        0.0
      ], 
      [
        364110, 
        2.2148275320268995, 
        0.0
      ], 
      [
        364111, 
        1.468423742618, 
        0.0
      ], 
      [
        364112, 
        1.74260121, 
        0.0
      ], 
      [
        364113, 
        0.14392476, 
        0.0
      ], 
      [
        364114, 
        1587.0215945527998, 
        0.0
      ], 
      [
        364115, 
        219.99581160900001, 
        0.0
      ], 
      [
        364116, 
        127.0851476874, 
        0.0
      ], 
      [
        364117, 
        74.90381741745, 
        0.0
      ], 
      [
        364118, 
        20.3159891025, 
        0.0
      ], 
      [
        364119, 
        12.73880800542, 
        0.0
      ], 
      [
        364120, 
        24.419835672925, 
        0.0
      ], 
      [
        364121, 
        9.237605978852999, 
        0.0
      ], 
      [
        364122, 
        6.081254463941999, 
        0.0
      ], 
      [
        364123, 
        4.796836770828899, 
        0.0
      ], 
      [
        364124, 
        2.2494862962824, 
        0.0
      ], 
      [
        364125, 
        1.4943331793235999, 
        0.0
      ], 
      [
        364126, 
        1.7641509199999998, 
        0.0
      ], 
      [
        364127, 
        0.145046125, 
        0.0
      ], 
      [
        364198, 
        2272.6349986648, 
        0.0
      ], 
      [
        364199, 
        81.0865067369, 
        0.0
      ], 
      [
        364200, 
        43.82949336163999, 
        0.0
      ], 
      [
        364201, 
        5.498225109691999, 
        0.0
      ], 
      [
        364202, 
        2.6966786078568, 
        0.0
      ], 
      [
        364203, 
        0.5128155586736001, 
        0.0
      ], 
      [
        364204, 
        2273.199495756, 
        0.0
      ], 
      [
        364205, 
        81.71900876474999, 
        0.0
      ], 
      [
        364206, 
        43.858740608549994, 
        0.0
      ], 
      [
        364207, 
        5.350863297709999, 
        0.0
      ], 
      [
        364208, 
        2.7123981218243, 
        0.0
      ], 
      [
        364209, 
        0.48681223934, 
        0.0
      ], 
      [
        308092, 
        0.63197, 
        0.0
      ], 
      [
        308093, 
        0.63433, 
        0.0
      ], 
      [
        345324, 
        0.5437, 
        0.0
      ], 
      [
        345948, 
        0.0437, 
        0.0
      ], 
      [
        344772, 
        48.893137104655196, 
        0.0
      ], 
      [
        344774, 
        103.012387928604, 
        0.0
      ], 
      [
        344775, 
        119.22005393259501, 
        0.0
      ], 
      [
        344776, 
        3.7740959620182, 
        0.0
      ], 
      [
        344778, 
        7.74718565906467, 
        0.0
      ], 
      [
        344779, 
        9.2013951411018, 
        0.0
      ], 
      [
        344780, 
        1.64032323174174, 
        0.0
      ], 
      [
        344781, 
        3.7099912157216997, 
        0.0
      ], 
      [
        344782, 
        4.3470565116762, 
        0.0
      ], 
      [
        364137, 
        4.759698352626001, 
        0.0
      ], 
      [
        364138, 
        2.236223235708, 
        0.0
      ], 
      [
        364139, 
        1.4918400719215004, 
        0.0
      ], 
      [
        364140, 
        1.76278578, 
        0.0
      ], 
      [
        364141, 
        0.144568326, 
        0.0
      ], 
      [
        364210, 
        2274.188130144, 
        0.0
      ], 
      [
        364211, 
        81.63706321344, 
        0.0
      ], 
      [
        364212, 
        43.869395516499, 
        0.0
      ], 
      [
        364213, 
        5.40565221651, 
        0.0
      ], 
      [
        364214, 
        2.7402892055049, 
        0.0
      ], 
      [
        364215, 
        0.4985289951103, 
        0.0
      ], 
      [
        308094, 
        0.63347, 
        0.0
      ], 
      [
        345123, 
        0.57555941, 
        0.0
      ], 
      [
        346193, 
        0.0470363709, 
        0.0
      ], 
      [
        346564, 
        0.57555941, 
        95722655.87107088
      ], 
      [
        346573, 
        0.0470363709, 
        7317709.624714338
      ], 
      [
        346562, 
        0.57555941, 
        0.0
      ], 
      [
        346571, 
        0.0470363709, 
        0.0
      ], 
      [
        345211, 
        0.033417, 
        0.0
      ], 
      [
        345212, 
        0.052685, 
        0.0
      ], 
      [
        345217, 
        0.055438, 
        0.0
      ], 
      [
        346343, 
        0.23844, 
        0.0
      ], 
      [
        346344, 
        0.22999685520000002, 
        0.0
      ], 
      [
        346345, 
        0.054667, 
        0.0
      ], 
      [
        346909, 
        0.033417, 
        239744.92717154138
      ], 
      [
        346912, 
        0.052685, 
        698230.7783951818
      ], 
      [
        346915, 
        0.055438, 
        1327077.0213125616
      ], 
      [
        346919, 
        0.01507, 
        0.0
      ], 
      [
        346923, 
        0.014534285999999999, 
        0.0
      ], 
      [
        346927, 
        0.00345, 
        0.0
      ], 
      [
        346564, 
        0.57555941, 
        95722655.87107088
      ], 
      [
        346573, 
        0.0470363709, 
        7317709.624714338
      ], 
      [
        346909, 
        0.033417, 
        239744.92717154138
      ], 
      [
        346912, 
        0.052685, 
        698230.7783951818
      ], 
      [
        346915, 
        0.055438, 
        1327077.0213125616
      ]
    ]
  }, 
  "mc16e": {
    "hh": [
      [
        363355, 
        4.3079416, 
        0.0
      ], 
      [
        363356, 
        2.19983005, 
        0.0
      ], 
      [
        363357, 
        6.7951, 
        0.0
      ], 
      [
        363358, 
        3.4328, 
        0.0
      ], 
      [
        363359, 
        24.708, 
        0.0
      ], 
      [
        363489, 
        11.419, 
        0.0
      ], 
      [
        363494, 
        0.60293, 
        0.0
      ], 
      [
        364250, 
        1.252, 
        0.0
      ], 
      [
        364253, 
        4.5765, 
        0.0
      ], 
      [
        364254, 
        12.501, 
        0.0
      ], 
      [
        364255, 
        3.2344, 
        0.0
      ], 
      [
        364288, 
        1.4484, 
        0.0
      ], 
      [
        364289, 
        2.9708, 
        0.0
      ], 
      [
        364290, 
        0.17238, 
        0.0
      ], 
      [
        410470, 
        452.34435839865904, 
        0.0
      ], 
      [
        410471, 
        379.507135201399, 
        0.0
      ], 
      [
        410644, 
        2.061459, 
        0.0
      ], 
      [
        410645, 
        1.28856558, 
        0.0
      ], 
      [
        410646, 
        35.84952, 
        0.0
      ], 
      [
        410647, 
        35.8467585, 
        0.0
      ], 
      [
        410658, 
        44.154726000000004, 
        0.0
      ], 
      [
        410659, 
        26.275157500000002, 
        0.0
      ], 
      [
        410155, 
        0.6008491200000001, 
        0.0
      ], 
      [
        410218, 
        0.04128768000000001, 
        0.0
      ], 
      [
        410219, 
        0.04128880000000001, 
        0.0
      ], 
      [
        410220, 
        0.0409416, 
        0.0
      ], 
      [
        412043, 
        0.010665, 
        0.0
      ], 
      [
        304014, 
        0.0016396, 
        0.0
      ], 
      [
        364156, 
        15317.8576551, 
        0.0
      ], 
      [
        364157, 
        2431.2040192439995, 
        0.0
      ], 
      [
        364158, 
        828.8801421516, 
        0.0
      ], 
      [
        364159, 
        618.5647247472, 
        0.0
      ], 
      [
        364160, 
        223.35841325951998, 
        0.0
      ], 
      [
        364161, 
        76.727973650328, 
        0.0
      ], 
      [
        364162, 
        197.79329214414, 
        0.0
      ], 
      [
        364163, 
        96.4494137376, 
        0.0
      ], 
      [
        364164, 
        36.345256660943996, 
        0.0
      ], 
      [
        364165, 
        38.29983516374399, 
        0.0
      ], 
      [
        364166, 
        22.395646627199998, 
        0.0
      ], 
      [
        364167, 
        8.768196432072001, 
        0.0
      ], 
      [
        364168, 
        14.558821199999999, 
        0.0
      ], 
      [
        364169, 
        1.19800296, 
        0.0
      ], 
      [
        364170, 
        15324.216355601999, 
        0.0
      ], 
      [
        364171, 
        2430.65632194, 
        0.0
      ], 
      [
        364172, 
        832.2037582319999, 
        0.0
      ], 
      [
        364173, 
        618.6973679686799, 
        0.0
      ], 
      [
        364174, 
        224.00317771524, 
        0.0
      ], 
      [
        364175, 
        94.88757384414, 
        0.0
      ], 
      [
        364176, 
        197.307201861, 
        0.0
      ], 
      [
        364177, 
        94.962584178, 
        0.0
      ], 
      [
        364178, 
        35.910950977439995, 
        0.0
      ], 
      [
        364179, 
        38.34053260883999, 
        0.0
      ], 
      [
        364180, 
        22.364320275989996, 
        0.0
      ], 
      [
        364181, 
        9.586344844691999, 
        0.0
      ], 
      [
        364182, 
        14.5985994, 
        0.0
      ], 
      [
        364183, 
        1.19761488, 
        0.0
      ], 
      [
        364184, 
        15324.88733622, 
        0.0
      ], 
      [
        364185, 
        2443.425880896, 
        0.0
      ], 
      [
        364186, 
        837.6280998624, 
        0.0
      ], 
      [
        364187, 
        619.44787491048, 
        0.0
      ], 
      [
        364188, 
        222.59530293461998, 
        0.0
      ], 
      [
        364189, 
        95.34031806222, 
        0.0
      ], 
      [
        364190, 
        197.35804480392, 
        0.0
      ], 
      [
        364191, 
        93.89560207103999, 
        0.0
      ], 
      [
        364192, 
        34.82262388836, 
        0.0
      ], 
      [
        364193, 
        39.281122066032, 
        0.0
      ], 
      [
        364194, 
        22.25461612374, 
        0.0
      ], 
      [
        364195, 
        9.490847272829999, 
        0.0
      ], 
      [
        364196, 
        14.603450399999998, 
        0.0
      ], 
      [
        364197, 
        1.1973238199999998, 
        0.0
      ], 
      [
        308096, 
        6.8063, 
        0.0
      ], 
      [
        308097, 
        6.7952, 
        0.0
      ], 
      [
        308098, 
        6.7976, 
        0.0
      ], 
      [
        345099, 
        6.6492745, 
        0.0
      ], 
      [
        345100, 
        7.355074320000001, 
        0.0
      ], 
      [
        345101, 
        17.1772272, 
        0.0
      ], 
      [
        345102, 
        9.02889937, 
        0.0
      ], 
      [
        364100, 
        1588.47417372, 
        0.0
      ], 
      [
        364101, 
        219.52125774179999, 
        0.0
      ], 
      [
        364102, 
        127.13037428804999, 
        0.0
      ], 
      [
        364103, 
        73.42295186688, 
        0.0
      ], 
      [
        364104, 
        20.90606833224, 
        0.0
      ], 
      [
        364105, 
        12.50542971664, 
        0.0
      ], 
      [
        364106, 
        23.30379340254, 
        0.0
      ], 
      [
        364107, 
        9.143665195889, 
        0.0
      ], 
      [
        364108, 
        6.076600896701999, 
        0.0
      ], 
      [
        364109, 
        4.6573670954888, 
        0.0
      ], 
      [
        364110, 
        2.2148275320268995, 
        0.0
      ], 
      [
        364111, 
        1.468423742618, 
        0.0
      ], 
      [
        364112, 
        1.74260121, 
        0.0
      ], 
      [
        364113, 
        0.14392476, 
        0.0
      ], 
      [
        364114, 
        1587.0215945527998, 
        0.0
      ], 
      [
        364115, 
        219.99581160900001, 
        0.0
      ], 
      [
        364116, 
        127.0851476874, 
        0.0
      ], 
      [
        364117, 
        74.90381741745, 
        0.0
      ], 
      [
        364118, 
        20.3159891025, 
        0.0
      ], 
      [
        364119, 
        12.73880800542, 
        0.0
      ], 
      [
        364120, 
        24.419835672925, 
        0.0
      ], 
      [
        364121, 
        9.237605978852999, 
        0.0
      ], 
      [
        364122, 
        6.081254463941999, 
        0.0
      ], 
      [
        364123, 
        4.796836770828899, 
        0.0
      ], 
      [
        364124, 
        2.2494862962824, 
        0.0
      ], 
      [
        364125, 
        1.4943331793235999, 
        0.0
      ], 
      [
        364126, 
        1.7641509199999998, 
        0.0
      ], 
      [
        364127, 
        0.145046125, 
        0.0
      ], 
      [
        364198, 
        2272.6349986648, 
        0.0
      ], 
      [
        364199, 
        81.0865067369, 
        0.0
      ], 
      [
        364200, 
        43.82949336163999, 
        0.0
      ], 
      [
        364201, 
        5.498225109691999, 
        0.0
      ], 
      [
        364202, 
        2.6966786078568, 
        0.0
      ], 
      [
        364203, 
        0.5128155586736001, 
        0.0
      ], 
      [
        364204, 
        2273.199495756, 
        0.0
      ], 
      [
        364205, 
        81.71900876474999, 
        0.0
      ], 
      [
        364206, 
        43.858740608549994, 
        0.0
      ], 
      [
        364207, 
        5.350863297709999, 
        0.0
      ], 
      [
        364208, 
        2.7123981218243, 
        0.0
      ], 
      [
        364209, 
        0.48681223934, 
        0.0
      ], 
      [
        308092, 
        0.63197, 
        0.0
      ], 
      [
        308093, 
        0.63433, 
        0.0
      ], 
      [
        345324, 
        0.5437, 
        0.0
      ], 
      [
        345948, 
        0.0437, 
        0.0
      ], 
      [
        344772, 
        48.893137104655196, 
        0.0
      ], 
      [
        344774, 
        103.012387928604, 
        0.0
      ], 
      [
        344775, 
        119.22005393259501, 
        0.0
      ], 
      [
        344776, 
        3.7740959620182, 
        0.0
      ], 
      [
        344778, 
        7.74718565906467, 
        0.0
      ], 
      [
        344779, 
        9.2013951411018, 
        0.0
      ], 
      [
        344780, 
        1.64032323174174, 
        0.0
      ], 
      [
        344781, 
        3.7099912157216997, 
        0.0
      ], 
      [
        344782, 
        4.3470565116762, 
        0.0
      ], 
      [
        364137, 
        4.759698352626001, 
        0.0
      ], 
      [
        364138, 
        2.236223235708, 
        0.0
      ], 
      [
        364139, 
        1.4918400719215004, 
        0.0
      ], 
      [
        364140, 
        1.76278578, 
        0.0
      ], 
      [
        364141, 
        0.144568326, 
        0.0
      ], 
      [
        364210, 
        2274.188130144, 
        0.0
      ], 
      [
        364211, 
        81.63706321344, 
        0.0
      ], 
      [
        364212, 
        43.869395516499, 
        0.0
      ], 
      [
        364213, 
        5.40565221651, 
        0.0
      ], 
      [
        364214, 
        2.7402892055049, 
        0.0
      ], 
      [
        364215, 
        0.4985289951103, 
        0.0
      ], 
      [
        308094, 
        0.63347, 
        0.0
      ], 
      [
        345123, 
        0.57555941, 
        0.0
      ], 
      [
        346193, 
        0.0470363709, 
        0.0
      ], 
      [
        346564, 
        0.57555941, 
        130659971.38756353
      ], 
      [
        346573, 
        0.0470363709, 
        11134874.879447969
      ], 
      [
        346562, 
        0.57555941, 
        0.0
      ], 
      [
        346571, 
        0.0470363709, 
        0.0
      ], 
      [
        345211, 
        0.033417, 
        0.0
      ], 
      [
        345212, 
        0.052685, 
        0.0
      ], 
      [
        345217, 
        0.055438, 
        0.0
      ], 
      [
        346343, 
        0.23844, 
        0.0
      ], 
      [
        346344, 
        0.22999685520000002, 
        0.0
      ], 
      [
        346345, 
        0.054667, 
        0.0
      ], 
      [
        346909, 
        0.033417, 
        608166.0877095014
      ], 
      [
        346912, 
        0.052685, 
        587761.6997844477
      ], 
      [
        346915, 
        0.055438, 
        1434563.425961251
      ], 
      [
        346919, 
        0.01507, 
        0.0
      ], 
      [
        346923, 
        0.014534285999999999, 
        0.0
      ], 
      [
        346927, 
        0.00345, 
        0.0
      ], 
      [
        346564, 
        0.57555941, 
        130659971.38756353
      ], 
      [
        346573, 
        0.0470363709, 
        11134874.879447969
      ], 
      [
        346909, 
        0.033417, 
        608166.0877095014
      ], 
      [
        346912, 
        0.052685, 
        587761.6997844477
      ], 
      [
        346915, 
        0.055438, 
        1434563.425961251
      ]
    ]
  }, 
  "mc16a": {
    "hh": [
      [
        363355, 
        4.3079416, 
        0.0
      ], 
      [
        363356, 
        2.19983005, 
        0.0
      ], 
      [
        363357, 
        6.7951, 
        0.0
      ], 
      [
        363358, 
        3.4328, 
        0.0
      ], 
      [
        363359, 
        24.708, 
        0.0
      ], 
      [
        363489, 
        11.419, 
        0.0
      ], 
      [
        363494, 
        0.60293, 
        0.0
      ], 
      [
        364250, 
        1.252, 
        0.0
      ], 
      [
        364253, 
        4.5765, 
        0.0
      ], 
      [
        364254, 
        12.501, 
        0.0
      ], 
      [
        364255, 
        3.2344, 
        0.0
      ], 
      [
        364288, 
        1.4484, 
        0.0
      ], 
      [
        364289, 
        2.9708, 
        0.0
      ], 
      [
        364290, 
        0.17238, 
        0.0
      ], 
      [
        410470, 
        452.34435839865904, 
        0.0
      ], 
      [
        410471, 
        379.507135201399, 
        0.0
      ], 
      [
        410644, 
        2.061459, 
        0.0
      ], 
      [
        410645, 
        1.28856558, 
        0.0
      ], 
      [
        410646, 
        35.84952, 
        0.0
      ], 
      [
        410647, 
        35.8467585, 
        0.0
      ], 
      [
        410658, 
        44.154726000000004, 
        0.0
      ], 
      [
        410659, 
        26.275157500000002, 
        0.0
      ], 
      [
        410155, 
        0.6008491200000001, 
        0.0
      ], 
      [
        410218, 
        0.04128768000000001, 
        0.0
      ], 
      [
        410219, 
        0.04128880000000001, 
        0.0
      ], 
      [
        410220, 
        0.0409416, 
        0.0
      ], 
      [
        412043, 
        0.010665, 
        0.0
      ], 
      [
        304014, 
        0.0016396, 
        0.0
      ], 
      [
        364156, 
        15317.8576551, 
        0.0
      ], 
      [
        364157, 
        2431.2040192439995, 
        0.0
      ], 
      [
        364158, 
        828.8801421516, 
        0.0
      ], 
      [
        364159, 
        618.5647247472, 
        0.0
      ], 
      [
        364160, 
        223.35841325951998, 
        0.0
      ], 
      [
        364161, 
        76.727973650328, 
        0.0
      ], 
      [
        364162, 
        197.79329214414, 
        0.0
      ], 
      [
        364163, 
        96.4494137376, 
        0.0
      ], 
      [
        364164, 
        36.345256660943996, 
        0.0
      ], 
      [
        364165, 
        38.29983516374399, 
        0.0
      ], 
      [
        364166, 
        22.395646627199998, 
        0.0
      ], 
      [
        364167, 
        8.768196432072001, 
        0.0
      ], 
      [
        364168, 
        14.558821199999999, 
        0.0
      ], 
      [
        364169, 
        1.19800296, 
        0.0
      ], 
      [
        364170, 
        15324.216355601999, 
        0.0
      ], 
      [
        364171, 
        2430.65632194, 
        0.0
      ], 
      [
        364172, 
        832.2037582319999, 
        0.0
      ], 
      [
        364173, 
        618.6973679686799, 
        0.0
      ], 
      [
        364174, 
        224.00317771524, 
        0.0
      ], 
      [
        364175, 
        94.88757384414, 
        0.0
      ], 
      [
        364176, 
        197.307201861, 
        0.0
      ], 
      [
        364177, 
        94.962584178, 
        0.0
      ], 
      [
        364178, 
        35.910950977439995, 
        0.0
      ], 
      [
        364179, 
        38.34053260883999, 
        0.0
      ], 
      [
        364180, 
        22.364320275989996, 
        0.0
      ], 
      [
        364181, 
        9.586344844691999, 
        0.0
      ], 
      [
        364182, 
        14.5985994, 
        0.0
      ], 
      [
        364183, 
        1.19761488, 
        0.0
      ], 
      [
        364184, 
        15324.88733622, 
        0.0
      ], 
      [
        364185, 
        2443.425880896, 
        0.0
      ], 
      [
        364186, 
        837.6280998624, 
        0.0
      ], 
      [
        364187, 
        619.44787491048, 
        0.0
      ], 
      [
        364188, 
        222.59530293461998, 
        0.0
      ], 
      [
        364189, 
        95.34031806222, 
        0.0
      ], 
      [
        364190, 
        197.35804480392, 
        0.0
      ], 
      [
        364191, 
        93.89560207103999, 
        0.0
      ], 
      [
        364192, 
        34.82262388836, 
        0.0
      ], 
      [
        364193, 
        39.281122066032, 
        0.0
      ], 
      [
        364194, 
        22.25461612374, 
        0.0
      ], 
      [
        364195, 
        9.490847272829999, 
        0.0
      ], 
      [
        364196, 
        14.603450399999998, 
        0.0
      ], 
      [
        364197, 
        1.1973238199999998, 
        0.0
      ], 
      [
        308096, 
        6.8063, 
        0.0
      ], 
      [
        308097, 
        6.7952, 
        0.0
      ], 
      [
        308098, 
        6.7976, 
        0.0
      ], 
      [
        345099, 
        6.6492745, 
        0.0
      ], 
      [
        345100, 
        7.355074320000001, 
        0.0
      ], 
      [
        345101, 
        17.1772272, 
        0.0
      ], 
      [
        345102, 
        9.02889937, 
        0.0
      ], 
      [
        364100, 
        1588.47417372, 
        0.0
      ], 
      [
        364101, 
        219.52125774179999, 
        0.0
      ], 
      [
        364102, 
        127.13037428804999, 
        0.0
      ], 
      [
        364103, 
        73.42295186688, 
        0.0
      ], 
      [
        364104, 
        20.90606833224, 
        0.0
      ], 
      [
        364105, 
        12.50542971664, 
        0.0
      ], 
      [
        364106, 
        23.30379340254, 
        0.0
      ], 
      [
        364107, 
        9.143665195889, 
        0.0
      ], 
      [
        364108, 
        6.076600896701999, 
        0.0
      ], 
      [
        364109, 
        4.6573670954888, 
        0.0
      ], 
      [
        364110, 
        2.2148275320268995, 
        0.0
      ], 
      [
        364111, 
        1.468423742618, 
        0.0
      ], 
      [
        364112, 
        1.74260121, 
        0.0
      ], 
      [
        364113, 
        0.14392476, 
        0.0
      ], 
      [
        364114, 
        1587.0215945527998, 
        0.0
      ], 
      [
        364115, 
        219.99581160900001, 
        0.0
      ], 
      [
        364116, 
        127.0851476874, 
        0.0
      ], 
      [
        364117, 
        74.90381741745, 
        0.0
      ], 
      [
        364118, 
        20.3159891025, 
        0.0
      ], 
      [
        364119, 
        12.73880800542, 
        0.0
      ], 
      [
        364120, 
        24.419835672925, 
        0.0
      ], 
      [
        364121, 
        9.237605978852999, 
        0.0
      ], 
      [
        364122, 
        6.081254463941999, 
        0.0
      ], 
      [
        364123, 
        4.796836770828899, 
        0.0
      ], 
      [
        364124, 
        2.2494862962824, 
        0.0
      ], 
      [
        364125, 
        1.4943331793235999, 
        0.0
      ], 
      [
        364126, 
        1.7641509199999998, 
        0.0
      ], 
      [
        364127, 
        0.145046125, 
        0.0
      ], 
      [
        364198, 
        2272.6349986648, 
        0.0
      ], 
      [
        364199, 
        81.0865067369, 
        0.0
      ], 
      [
        364200, 
        43.82949336163999, 
        0.0
      ], 
      [
        364201, 
        5.498225109691999, 
        0.0
      ], 
      [
        364202, 
        2.6966786078568, 
        0.0
      ], 
      [
        364203, 
        0.5128155586736001, 
        0.0
      ], 
      [
        364204, 
        2273.199495756, 
        0.0
      ], 
      [
        364205, 
        81.71900876474999, 
        0.0
      ], 
      [
        364206, 
        43.858740608549994, 
        0.0
      ], 
      [
        364207, 
        5.350863297709999, 
        0.0
      ], 
      [
        364208, 
        2.7123981218243, 
        0.0
      ], 
      [
        364209, 
        0.48681223934, 
        0.0
      ], 
      [
        308092, 
        0.63197, 
        0.0
      ], 
      [
        308093, 
        0.63433, 
        0.0
      ], 
      [
        345324, 
        0.5437, 
        0.0
      ], 
      [
        345948, 
        0.0437, 
        0.0
      ], 
      [
        344772, 
        48.893137104655196, 
        0.0
      ], 
      [
        344774, 
        103.012387928604, 
        0.0
      ], 
      [
        344775, 
        119.22005393259501, 
        0.0
      ], 
      [
        344776, 
        3.7740959620182, 
        0.0
      ], 
      [
        344778, 
        7.74718565906467, 
        0.0
      ], 
      [
        344779, 
        9.2013951411018, 
        0.0
      ], 
      [
        344780, 
        1.64032323174174, 
        0.0
      ], 
      [
        344781, 
        3.7099912157216997, 
        0.0
      ], 
      [
        344782, 
        4.3470565116762, 
        0.0
      ], 
      [
        364137, 
        4.759698352626001, 
        0.0
      ], 
      [
        364138, 
        2.236223235708, 
        0.0
      ], 
      [
        364139, 
        1.4918400719215004, 
        0.0
      ], 
      [
        364140, 
        1.76278578, 
        0.0
      ], 
      [
        364141, 
        0.144568326, 
        0.0
      ], 
      [
        364210, 
        2274.188130144, 
        0.0
      ], 
      [
        364211, 
        81.63706321344, 
        0.0
      ], 
      [
        364212, 
        43.869395516499, 
        0.0
      ], 
      [
        364213, 
        5.40565221651, 
        0.0
      ], 
      [
        364214, 
        2.7402892055049, 
        0.0
      ], 
      [
        364215, 
        0.4985289951103, 
        0.0
      ], 
      [
        308094, 
        0.63347, 
        0.0
      ], 
      [
        345123, 
        0.57555941, 
        0.0
      ], 
      [
        346193, 
        0.0470363709, 
        0.0
      ], 
      [
        346564, 
        0.57555941, 
        332676635.54426175
      ], 
      [
        346573, 
        0.0470363709, 
        28640661.927796513
      ], 
      [
        346562, 
        0.57555941, 
        0.0
      ], 
      [
        346571, 
        0.0470363709, 
        0.0
      ], 
      [
        345211, 
        0.033417, 
        0.0
      ], 
      [
        345212, 
        0.052685, 
        0.0
      ], 
      [
        345217, 
        0.055438, 
        0.0
      ], 
      [
        346343, 
        0.23844, 
        0.0
      ], 
      [
        346344, 
        0.22999685520000002, 
        0.0
      ], 
      [
        346345, 
        0.054667, 
        0.0
      ], 
      [
        346909, 
        0.033417, 
        1589758.0425406545
      ], 
      [
        346912, 
        0.052685, 
        2539856.77423006
      ], 
      [
        346915, 
        0.055438, 
        4264366.398900489
      ], 
      [
        346919, 
        0.01507, 
        0.0
      ], 
      [
        346923, 
        0.014534285999999999, 
        0.0
      ], 
      [
        346927, 
        0.00345, 
        0.0
      ], 
      [
        346564, 
        0.57555941, 
        332676635.54426175
      ], 
      [
        346573, 
        0.0470363709, 
        28640661.927796513
      ], 
      [
        346909, 
        0.033417, 
        1589758.0425406545
      ], 
      [
        346912, 
        0.052685, 
        2539856.77423006
      ], 
      [
        346915, 
        0.055438, 
        4264366.398900489
      ]
    ]
  }
}