{
  "mc16d": {
    "hh": [
      [
        363355, 
        4.3079416, 
        3490355.381649791
      ], 
      [
        363356, 
        2.19983005, 
        3493067.334427736
      ], 
      [
        363357, 
        6.7951, 
        555940.2063387907
      ], 
      [
        363358, 
        3.4328, 
        1267165.2709668311
      ], 
      [
        363359, 
        24.708, 
        5370566.941446427
      ], 
      [
        363489, 
        11.419, 
        5628089.08731736
      ], 
      [
        363494, 
        0.60293, 
        1070941.7333544653
      ], 
      [
        364250, 
        1.252, 
        15185085.313277371
      ], 
      [
        364253, 
        4.5765, 
        11066820.244425401
      ], 
      [
        364254, 
        12.501, 
        10238004.488006057
      ], 
      [
        364255, 
        3.2344, 
        3505952.586673085
      ], 
      [
        364288, 
        1.4484, 
        247974.3491486311
      ], 
      [
        364289, 
        2.9708, 
        2778822.0110753775
      ], 
      [
        364290, 
        0.17238, 
        40270.6168974638
      ], 
      [
        410470, 
        452.34435839865904, 
        109034065946.99658
      ], 
      [
        410471, 
        379.507135201399, 
        36401261966.79114
      ], 
      [
        410644, 
        2.061459, 
        5065597.106669903
      ], 
      [
        410645, 
        1.28856558, 
        3171824.083278179
      ], 
      [
        410646, 
        35.84952, 
        473547385.9976578
      ], 
      [
        410647, 
        35.8467585, 
        472449817.9592819
      ], 
      [
        410658, 
        44.154726000000004, 
        230476260.4708776
      ], 
      [
        410659, 
        26.275157500000002, 
        132472573.49418662
      ], 
      [
        410155, 
        0.6008491200000001, 
        4111925.0083904862
      ], 
      [
        410218, 
        0.04128768000000001, 
        49255.10075934976
      ], 
      [
        410219, 
        0.04128880000000001, 
        49331.13402491063
      ], 
      [
        410220, 
        0.0409416, 
        32785.08994945139
      ], 
      [
        412043, 
        0.010665, 
        52711.360458029434
      ], 
      [
        304014, 
        0.0016396, 
        400000.0
      ], 
      [
        364156, 
        15317.8576551, 
        20980416.126524933
      ], 
      [
        364157, 
        2431.2040192439995, 
        14017952.942347003
      ], 
      [
        364158, 
        828.8801421516, 
        13107422.277371787
      ], 
      [
        364159, 
        618.5647247472, 
        6809091.182864058
      ], 
      [
        364160, 
        223.35841325951998, 
        4736031.708851199
      ], 
      [
        364161, 
        76.727973650328, 
        10251557.926743405
      ], 
      [
        364162, 
        197.79329214414, 
        7671069.993160637
      ], 
      [
        364163, 
        96.4494137376, 
        11965922.578568932
      ], 
      [
        364164, 
        36.345256660943996, 
        4761600.235227503
      ], 
      [
        364165, 
        38.29983516374399, 
        5457432.74563455
      ], 
      [
        364166, 
        22.395646627199998, 
        3511511.9970141947
      ], 
      [
        364167, 
        8.768196432072001, 
        7227230.8472552225
      ], 
      [
        364168, 
        14.558821199999999, 
        7537726.06146276
      ], 
      [
        364169, 
        1.19800296, 
        5139781.52323699
      ], 
      [
        364170, 
        15324.216355601999, 
        20732831.65496868
      ], 
      [
        364171, 
        2430.65632194, 
        14301319.298954114
      ], 
      [
        364172, 
        832.2037582319999, 
        13185528.958004253
      ], 
      [
        364173, 
        618.6973679686799, 
        6779036.612022322
      ], 
      [
        364174, 
        224.00317771524, 
        4686194.973897405
      ], 
      [
        364175, 
        94.88757384414, 
        10054148.181599166
      ], 
      [
        364176, 
        197.307201861, 
        7733763.4854888655
      ], 
      [
        364177, 
        94.962584178, 
        11975483.782908736
      ], 
      [
        364178, 
        35.910950977439995, 
        23622685.385285657
      ], 
      [
        364179, 
        38.34053260883999, 
        5259053.309356796
      ], 
      [
        364180, 
        22.364320275989996, 
        3507553.8031311557
      ], 
      [
        364181, 
        9.586344844691999, 
        7164743.583457218
      ], 
      [
        364182, 
        14.5985994, 
        7522018.711002981
      ], 
      [
        364183, 
        1.19761488, 
        9181308.679551005
      ], 
      [
        364184, 
        15324.88733622, 
        20991167.738532957
      ], 
      [
        364185, 
        2443.425880896, 
        5716689.2291489085
      ], 
      [
        364186, 
        837.6280998624, 
        13264431.697058588
      ], 
      [
        364187, 
        619.44787491048, 
        6799003.576742884
      ], 
      [
        364188, 
        222.59530293461998, 
        4704295.750532513
      ], 
      [
        364189, 
        95.34031806222, 
        5038960.269808608
      ], 
      [
        364190, 
        197.35804480392, 
        15569130.535491113
      ], 
      [
        364191, 
        93.89560207103999, 
        9985726.794827893
      ], 
      [
        364192, 
        34.82262388836, 
        23645222.95347297
      ], 
      [
        364193, 
        39.281122066032, 
        8180294.068472981
      ], 
      [
        364194, 
        22.25461612374, 
        5274270.253322026
      ], 
      [
        364195, 
        9.490847272829999, 
        3586555.9285339043
      ], 
      [
        364196, 
        14.603450399999998, 
        7546298.144787088
      ], 
      [
        364197, 
        1.1973238199999998, 
        5121805.794290066
      ], 
      [
        308096, 
        6.8063, 
        1248469.2044585943
      ], 
      [
        308097, 
        6.7952, 
        1247558.9945950508
      ], 
      [
        308098, 
        6.7976, 
        1247820.230126977
      ], 
      [
        345099, 
        6.6492745, 
        831681.5751648587
      ], 
      [
        345100, 
        7.355074320000001, 
        782994.0240348055
      ], 
      [
        345101, 
        17.1772272, 
        1836839.1931608124
      ], 
      [
        345102, 
        9.02889937, 
        889135.0804028643
      ], 
      [
        364100, 
        1588.47417372, 
        6693737.228810846
      ], 
      [
        364101, 
        219.52125774179999, 
        3576209.472664593
      ], 
      [
        364102, 
        127.13037428804999, 
        4966492.606712537
      ], 
      [
        364103, 
        73.42295186688, 
        2717596.446847317
      ], 
      [
        364104, 
        20.90606833224, 
        902414.3690206723
      ], 
      [
        364105, 
        12.50542971664, 
        2543691.715871033
      ], 
      [
        364106, 
        23.30379340254, 
        3716021.1706106565
      ], 
      [
        364107, 
        9.143665195889, 
        2491777.6600660714
      ], 
      [
        364108, 
        6.076600896701999, 
        10715305.710622966
      ], 
      [
        364109, 
        4.6573670954888, 
        2116546.384079381
      ], 
      [
        364110, 
        2.2148275320268995, 
        1145984.9755594395
      ], 
      [
        364111, 
        1.468423742618, 
        4683226.70028336
      ], 
      [
        364112, 
        1.74260121, 
        3725326.760743403
      ], 
      [
        364113, 
        0.14392476, 
        1274067.2296616435
      ], 
      [
        364114, 
        1587.0215945527998, 
        6719012.350314611
      ], 
      [
        364115, 
        219.99581160900001, 
        3583695.67243927
      ], 
      [
        364116, 
        127.0851476874, 
        5139202.169442049
      ], 
      [
        364117, 
        74.90381741745, 
        2702655.20994666
      ], 
      [
        364118, 
        20.3159891025, 
        907295.3193301978
      ], 
      [
        364119, 
        12.73880800542, 
        2628718.293705561
      ], 
      [
        364120, 
        24.419835672925, 
        3744160.056808362
      ], 
      [
        364121, 
        9.237605978852999, 
        2499776.7955379463
      ], 
      [
        364122, 
        6.081254463941999, 
        10889156.86833662
      ], 
      [
        364123, 
        4.796836770828899, 
        2152620.70413427
      ], 
      [
        364124, 
        2.2494862962824, 
        1147074.0964410082
      ], 
      [
        364125, 
        1.4943331793235999, 
        4681780.227199905
      ], 
      [
        364126, 
        1.7641509199999998, 
        3677712.001134162
      ], 
      [
        364127, 
        0.145046125, 
        1270333.509212494
      ], 
      [
        364198, 
        2272.6349986648, 
        7539762.05936531
      ], 
      [
        364199, 
        81.0865067369, 
        1426724.4282982778
      ], 
      [
        364200, 
        43.82949336163999, 
        3043393.4342023693
      ], 
      [
        364201, 
        5.498225109691999, 
        1440850.7979290634
      ], 
      [
        364202, 
        2.6966786078568, 
        1283516.732527852
      ], 
      [
        364203, 
        0.5128155586736001, 
        300008.0717076063
      ], 
      [
        364204, 
        2273.199495756, 
        7530693.355154184
      ], 
      [
        364205, 
        81.71900876474999, 
        1431398.0574335735
      ], 
      [
        364206, 
        43.858740608549994, 
        3045080.5266619343
      ], 
      [
        364207, 
        5.350863297709999, 
        1281583.5491565187
      ], 
      [
        364208, 
        2.7123981218243, 
        1151169.2123810053
      ], 
      [
        364209, 
        0.48681223934, 
        492300.7906675339
      ], 
      [
        308092, 
        0.63197, 
        630389.0237036943
      ], 
      [
        308093, 
        0.63433, 
        630868.2068861723
      ], 
      [
        345324, 
        0.5437, 
        87405300.54194908
      ], 
      [
        345948, 
        0.0437, 
        9398448.776731871
      ], 
      [
        344772, 
        48.893137104655196, 
        6834835.576611896
      ], 
      [
        344774, 
        103.012387928604, 
        26718500.373699065
      ], 
      [
        344775, 
        119.22005393259501, 
        3474927.9533264576
      ], 
      [
        344776, 
        3.7740959620182, 
        3597063.715886428
      ], 
      [
        344778, 
        7.74718565906467, 
        3472366.3276764927
      ], 
      [
        344779, 
        9.2013951411018, 
        7184716.775760093
      ], 
      [
        344780, 
        1.64032323174174, 
        2903061.1434453707
      ], 
      [
        344781, 
        3.7099912157216997, 
        2862426.5380972577
      ], 
      [
        344782, 
        4.3470565116762, 
        5775965.425614384
      ], 
      [
        364137, 
        4.759698352626001, 
        8620319.029854253
      ], 
      [
        364138, 
        2.236223235708, 
        1133852.6804158948
      ], 
      [
        364139, 
        1.4918400719215004, 
        2343161.4162654895
      ], 
      [
        364140, 
        1.76278578, 
        3723236.2297408693
      ], 
      [
        364141, 
        0.144568326, 
        1272900.203109026
      ], 
      [
        364210, 
        2274.188130144, 
        6674734.3598365225
      ], 
      [
        364211, 
        81.63706321344, 
        1261319.6258422546
      ], 
      [
        364212, 
        43.869395516499, 
        2708569.0535422154
      ], 
      [
        364213, 
        5.40565221651, 
        1283180.6496652812
      ], 
      [
        364214, 
        2.7402892055049, 
        720358.1547564268
      ], 
      [
        364215, 
        0.4985289951103, 
        308227.3845384121
      ], 
      [
        308094, 
        0.63347, 
        629342.3874565363
      ], 
      [
        345123, 
        0.57555941, 
        103997077.35388252
      ], 
      [
        346193, 
        0.0470363709, 
        3775001.6445849
      ], 
      [
        346564, 
        0.57555941, 
        105053171.30174924
      ], 
      [
        346573, 
        0.0470363709, 
        9014903.85970537
      ], 
      [
        346562, 
        0.57555941, 
        5266757.558392048
      ], 
      [
        346571, 
        0.0470363709, 
        453593.945077911
      ], 
      [
        345211, 
        0.033417, 
        135321.7412052824
      ], 
      [
        345212, 
        0.052685, 
        215920.09335822292
      ], 
      [
        345217, 
        0.055438, 
        355401.1836489359
      ], 
      [
        346343, 
        0.23844, 
        1516546.508980948
      ], 
      [
        346344, 
        0.22999685520000002, 
        3338999.670776532
      ], 
      [
        346345, 
        0.054667, 
        347487.2209078622
      ], 
      [
        346909, 
        0.033417, 
        510439.874929484
      ], 
      [
        346912, 
        0.052685, 
        810665.9433398065
      ], 
      [
        346915, 
        0.055438, 
        1438878.9695757115
      ], 
      [
        346919, 
        0.01507, 
        146708.32530320645
      ], 
      [
        346923, 
        0.014534285999999999, 
        322426.50085118815
      ], 
      [
        346927, 
        0.00345, 
        33557.45169756806
      ]
    ]
  }, 
  "mc16e": {
    "hh": [
      [
        363355, 
        4.3079416, 
        5795084.355500011
      ], 
      [
        363356, 
        2.19983005, 
        5798104.492057384
      ], 
      [
        363357, 
        6.7951, 
        928257.3438840844
      ], 
      [
        363358, 
        3.4328, 
        421818.674469801
      ], 
      [
        363359, 
        24.708, 
        1784626.7644427395
      ], 
      [
        363489, 
        11.419, 
        1873760.2045233655
      ], 
      [
        363494, 
        0.60293, 
        1761312.6563106142
      ], 
      [
        364250, 
        1.252, 
        10808388.382668331
      ], 
      [
        364253, 
        4.5765, 
        9233499.11648792
      ], 
      [
        364254, 
        12.501, 
        8486336.639628109
      ], 
      [
        364255, 
        3.2344, 
        2909865.293271023
      ], 
      [
        364288, 
        1.4484, 
        330362.4198226929
      ], 
      [
        364289, 
        2.9708, 
        4318306.429188609
      ], 
      [
        364290, 
        0.17238, 
        48496.06748878956
      ], 
      [
        410470, 
        452.34435839865904, 
        113020390826.20398
      ], 
      [
        410471, 
        379.507135201399, 
        62815821520.35144
      ], 
      [
        410644, 
        2.061459, 
        6699455.012125969
      ], 
      [
        410645, 
        1.28856558, 
        4207585.823101759
      ], 
      [
        410646, 
        35.84952, 
        629079337.5018501
      ], 
      [
        410647, 
        35.8467585, 
        627923457.9749184
      ], 
      [
        410658, 
        44.154726000000004, 
        306995965.17729956
      ], 
      [
        410659, 
        26.275157500000002, 
        184202839.55086434
      ], 
      [
        410155, 
        0.6008491200000001, 
        6601725.5496377945
      ], 
      [
        410218, 
        0.04128768000000001, 
        79922.39313930273
      ], 
      [
        410219, 
        0.04128880000000001, 
        80098.10679871589
      ], 
      [
        410220, 
        0.0409416, 
        35092.02892035991
      ], 
      [
        412043, 
        0.010665, 
        69471.6719048135
      ], 
      [
        304014, 
        0.0016396, 
        400000.0
      ], 
      [
        364156, 
        15317.8576551, 
        27891406.310241163
      ], 
      [
        364157, 
        2431.2040192439995, 
        18783281.538414996
      ], 
      [
        364158, 
        828.8801421516, 
        17555985.616526164
      ], 
      [
        364159, 
        618.5647247472, 
        9077204.489510668
      ], 
      [
        364160, 
        223.35841325951998, 
        6028051.801757203
      ], 
      [
        364161, 
        76.727973650328, 
        13373772.749910228
      ], 
      [
        364162, 
        197.79329214414, 
        10439801.157056244
      ], 
      [
        364163, 
        96.4494137376, 
        15918364.786062703
      ], 
      [
        364164, 
        36.345256660943996, 
        30795290.648886975
      ], 
      [
        364165, 
        38.29983516374399, 
        7277819.755885538
      ], 
      [
        364166, 
        22.395646627199998, 
        4674171.1153828595
      ], 
      [
        364167, 
        8.768196432072001, 
        9547683.123243425
      ], 
      [
        364168, 
        14.558821199999999, 
        9991646.084691226
      ], 
      [
        364169, 
        1.19800296, 
        6828577.429056138
      ], 
      [
        364170, 
        15324.216355601999, 
        27911952.372652557
      ], 
      [
        364171, 
        2430.65632194, 
        18941214.841041513
      ], 
      [
        364172, 
        832.2037582319999, 
        17769161.503225517
      ], 
      [
        364173, 
        618.6973679686799, 
        9012384.3730582
      ], 
      [
        364174, 
        224.00317771524, 
        6278065.924517473
      ], 
      [
        364175, 
        94.88757384414, 
        12491350.22966859
      ], 
      [
        364176, 
        197.307201861, 
        10421583.266111897
      ], 
      [
        364177, 
        94.962584178, 
        15871433.723524138
      ], 
      [
        364178, 
        35.910950977439995, 
        30839939.301806636
      ], 
      [
        364179, 
        38.34053260883999, 
        7262765.666412178
      ], 
      [
        364180, 
        22.364320275989996, 
        4669541.174297653
      ], 
      [
        364181, 
        9.586344844691999, 
        9544166.551485125
      ], 
      [
        364182, 
        14.5985994, 
        9989635.619478885
      ], 
      [
        364183, 
        1.19761488, 
        6857553.787731737
      ], 
      [
        364184, 
        15324.88733622, 
        27945045.927947737
      ], 
      [
        364185, 
        2443.425880896, 
        18290730.0423626
      ], 
      [
        364186, 
        837.6280998624, 
        17644560.759676024
      ], 
      [
        364187, 
        619.44787491048, 
        9111352.668959629
      ], 
      [
        364188, 
        222.59530293461998, 
        6248831.814641442
      ], 
      [
        364189, 
        95.34031806222, 
        10099506.171325658
      ], 
      [
        364190, 
        197.35804480392, 
        20668245.913758177
      ], 
      [
        364191, 
        93.89560207103999, 
        13223272.618391313
      ], 
      [
        364192, 
        34.82262388836, 
        30910708.375011444
      ], 
      [
        364193, 
        39.281122066032, 
        10921667.928664854
      ], 
      [
        364194, 
        22.25461612374, 
        7017716.721964937
      ], 
      [
        364195, 
        9.490847272829999, 
        4773563.571976438
      ], 
      [
        364196, 
        14.603450399999998, 
        10027886.219541289
      ], 
      [
        364197, 
        1.1973238199999998, 
        6818924.821220279
      ], 
      [
        308096, 
        6.8063, 
        1653295.824378252
      ], 
      [
        308097, 
        6.7952, 
        1658057.4263932705
      ], 
      [
        308098, 
        6.7976, 
        1656625.346910596
      ], 
      [
        345099, 
        6.6492745, 
        1102824.5412826594
      ], 
      [
        345100, 
        7.355074320000001, 
        1080866.463703232
      ], 
      [
        345101, 
        17.1772272, 
        2428446.1030442654
      ], 
      [
        345102, 
        9.02889937, 
        1208738.5802357094
      ], 
      [
        364100, 
        1588.47417372, 
        8936223.69749164
      ], 
      [
        364101, 
        219.52125774179999, 
        4779260.68943846
      ], 
      [
        364102, 
        127.13037428804999, 
        6782546.481498051
      ], 
      [
        364103, 
        73.42295186688, 
        3615557.06480464
      ], 
      [
        364104, 
        20.90606833224, 
        1192954.520856347
      ], 
      [
        364105, 
        12.50542971664, 
        3470666.9408196006
      ], 
      [
        364106, 
        23.30379340254, 
        4929117.991469354
      ], 
      [
        364107, 
        9.143665195889, 
        3324229.0391722904
      ], 
      [
        364108, 
        6.076600896701999, 
        14367137.174127035
      ], 
      [
        364109, 
        4.6573670954888, 
        2865543.427064053
      ], 
      [
        364110, 
        2.2148275320268995, 
        1531850.9662022581
      ], 
      [
        364111, 
        1.468423742618, 
        6205866.879919574
      ], 
      [
        364112, 
        1.74260121, 
        5078116.864055352
      ], 
      [
        364113, 
        0.14392476, 
        1622696.6512544751
      ], 
      [
        364114, 
        1587.0215945527998, 
        8917788.640627537
      ], 
      [
        364115, 
        219.99581160900001, 
        4772097.831127533
      ], 
      [
        364116, 
        127.0851476874, 
        6830130.162783678
      ], 
      [
        364117, 
        74.90381741745, 
        3638099.6210869695
      ], 
      [
        364118, 
        20.3159891025, 
        1208443.7459066021
      ], 
      [
        364119, 
        12.73880800542, 
        3471145.110198727
      ], 
      [
        364120, 
        24.419835672925, 
        5011356.11388241
      ], 
      [
        364121, 
        9.237605978852999, 
        3323981.519727367
      ], 
      [
        364122, 
        6.081254463941999, 
        14437641.448529854
      ], 
      [
        364123, 
        4.796836770828899, 
        2951583.7821916887
      ], 
      [
        364124, 
        2.2494862962824, 
        1593508.8808104508
      ], 
      [
        364125, 
        1.4943331793235999, 
        6203118.798487233
      ], 
      [
        364126, 
        1.7641509199999998, 
        4930255.9358734265
      ], 
      [
        364127, 
        0.145046125, 
        1697923.5854374766
      ], 
      [
        364198, 
        2272.6349986648, 
        5559184.000472615
      ], 
      [
        364199, 
        81.0865067369, 
        1052101.5669952948
      ], 
      [
        364200, 
        43.82949336163999, 
        2242879.142321147
      ], 
      [
        364201, 
        5.498225109691999, 
        1074309.092185624
      ], 
      [
        364202, 
        2.6966786078568, 
        957837.385357976
      ], 
      [
        364203, 
        0.5128155586736001, 
        410956.8663687706
      ], 
      [
        364204, 
        2273.199495756, 
        5556797.830418688
      ], 
      [
        364205, 
        81.71900876474999, 
        1049113.1854720358
      ], 
      [
        364206, 
        43.858740608549994, 
        2252519.5741448626
      ], 
      [
        364207, 
        5.350863297709999, 
        1065973.7630916312
      ], 
      [
        364208, 
        2.7123981218243, 
        956297.4665722847
      ], 
      [
        364209, 
        0.48681223934, 
        413826.72326660156
      ], 
      [
        308092, 
        0.63197, 
        838458.8959590197
      ], 
      [
        308093, 
        0.63433, 
        839218.6207970381
      ], 
      [
        345324, 
        0.5437, 
        145548500.15293032
      ], 
      [
        345948, 
        0.0437, 
        9437964.737711571
      ], 
      [
        344772, 
        48.893137104655196, 
        9071507.717424642
      ], 
      [
        344774, 
        103.012387928604, 
        36008819.280179515
      ], 
      [
        344775, 
        119.22005393259501, 
        4614798.5775107425
      ], 
      [
        344776, 
        3.7740959620182, 
        4765590.533617093
      ], 
      [
        344778, 
        7.74718565906467, 
        4593292.602068993
      ], 
      [
        344779, 
        9.2013951411018, 
        9429428.935305586
      ], 
      [
        344780, 
        1.64032323174174, 
        3775069.7802331913
      ], 
      [
        344781, 
        3.7099912157216997, 
        3714915.516274933
      ], 
      [
        344782, 
        4.3470565116762, 
        7602844.673900607
      ], 
      [
        364137, 
        4.759698352626001, 
        11374048.653658142
      ], 
      [
        364138, 
        2.236223235708, 
        1532853.8918604166
      ], 
      [
        364139, 
        1.4918400719215004, 
        3119964.18503478
      ], 
      [
        364140, 
        1.76278578, 
        4922786.759697786
      ], 
      [
        364141, 
        0.144568326, 
        1697854.8654967546
      ], 
      [
        364210, 
        2274.188130144, 
        5526368.2127804365
      ], 
      [
        364211, 
        81.63706321344, 
        1050956.2051397115
      ], 
      [
        364212, 
        43.869395516499, 
        2244588.0926418714
      ], 
      [
        364213, 
        5.40565221651, 
        1068484.0669243187
      ], 
      [
        364214, 
        2.7402892055049, 
        959934.5447695255
      ], 
      [
        364215, 
        0.4985289951103, 
        411443.3161172867
      ], 
      [
        308094, 
        0.63347, 
        832480.6304154396
      ], 
      [
        345123, 
        0.57555941, 
        120230842.30354339
      ], 
      [
        346193, 
        0.0470363709, 
        5284378.798292866
      ], 
      [
        346564, 
        0.57555941, 
        138070574.0328706
      ], 
      [
        346573, 
        0.0470363709, 
        12090658.454200791
      ], 
      [
        346562, 
        0.57555941, 
        7011042.389117956
      ], 
      [
        346571, 
        0.0470363709, 
        604311.8271202194
      ], 
      [
        345211, 
        0.033417, 
        135892.76155139878
      ], 
      [
        345212, 
        0.052685, 
        216119.49742875123
      ], 
      [
        345217, 
        0.055438, 
        367608.038040683
      ], 
      [
        346343, 
        0.23844, 
        1927528.60083056
      ], 
      [
        346344, 
        0.22999685520000002, 
        4201275.3090728745
      ], 
      [
        346345, 
        0.054667, 
        443307.3063839013
      ], 
      [
        346909, 
        0.033417, 
        671176.1351956427
      ], 
      [
        346912, 
        0.052685, 
        1079467.9373652223
      ], 
      [
        346915, 
        0.055438, 
        1910109.211059406
      ], 
      [
        346919, 
        0.01507, 
        195894.4910230263
      ], 
      [
        346923, 
        0.014534285999999999, 
        430512.7816710994
      ], 
      [
        346927, 
        0.00345, 
        44851.35857033529
      ]
    ]
  }, 
  "mc16a": {
    "hh": [
      [
        363355, 
        4.3079416, 
        3496611.8936878857
      ], 
      [
        363356, 
        2.19983005, 
        6984040.589728016
      ], 
      [
        363357, 
        6.7951, 
        559370.390576686
      ], 
      [
        363358, 
        3.4328, 
        254404.2498287788
      ], 
      [
        363359, 
        24.708, 
        1076338.1368878877
      ], 
      [
        363489, 
        11.419, 
        1124496.0669597376
      ], 
      [
        363494, 
        0.60293, 
        1061536.7650401318
      ], 
      [
        364250, 
        1.252, 
        7518811.896320311
      ], 
      [
        364253, 
        4.5765, 
        5356445.421873692
      ], 
      [
        364254, 
        12.501, 
        5114801.4341284735
      ], 
      [
        364255, 
        3.2344, 
        1750458.949531676
      ], 
      [
        364288, 
        1.4484, 
        203874.09307324886
      ], 
      [
        364289, 
        2.9708, 
        2246042.543584347
      ], 
      [
        364290, 
        0.17238, 
        29840.345098257065
      ], 
      [
        410470, 
        452.34435839865904, 
        86723891238.09863
      ], 
      [
        410471, 
        379.507135201399, 
        29124112160.552002
      ], 
      [
        410644, 
        2.061459, 
        4056368.955808401
      ], 
      [
        410645, 
        1.28856558, 
        2537965.303387642
      ], 
      [
        410646, 
        35.84952, 
        379094181.70738983
      ], 
      [
        410647, 
        35.8467585, 
        379068450.2138939
      ], 
      [
        410658, 
        44.154726000000004, 
        177371127.73414174
      ], 
      [
        410659, 
        26.275157500000002, 
        105687644.47309086
      ], 
      [
        410155, 
        0.6008491200000001, 
        4110680.752181828
      ], 
      [
        410218, 
        0.04128768000000001, 
        52012.904244579375
      ], 
      [
        410219, 
        0.04128880000000001, 
        52021.83777882159
      ], 
      [
        410220, 
        0.0409416, 
        34220.875033184886
      ], 
      [
        412043, 
        0.010665, 
        42612.69882680662
      ], 
      [
        304014, 
        0.0016396, 
        400000.0
      ], 
      [
        364156, 
        15317.8576551, 
        16783367.71521499
      ], 
      [
        364157, 
        2431.2040192439995, 
        11441296.85086993
      ], 
      [
        364158, 
        828.8801421516, 
        10559843.078788698
      ], 
      [
        364159, 
        618.5647247472, 
        5482207.91320644
      ], 
      [
        364160, 
        223.35841325951998, 
        3739738.716532326
      ], 
      [
        364161, 
        76.727973650328, 
        8101688.300630656
      ], 
      [
        364162, 
        197.79329214414, 
        6228867.748728445
      ], 
      [
        364163, 
        96.4494137376, 
        9512303.278907686
      ], 
      [
        364164, 
        36.345256660943996, 
        18531580.76314757
      ], 
      [
        364165, 
        38.29983516374399, 
        4376833.834797125
      ], 
      [
        364166, 
        22.395646627199998, 
        2813148.816152606
      ], 
      [
        364167, 
        8.768196432072001, 
        5690314.156040646
      ], 
      [
        364168, 
        14.558821199999999, 
        6029336.825471029
      ], 
      [
        364169, 
        1.19800296, 
        1370651.2522913218
      ], 
      [
        364170, 
        15324.216355601999, 
        16788422.983433977
      ], 
      [
        364171, 
        2430.65632194, 
        11344213.683211623
      ], 
      [
        364172, 
        832.2037582319999, 
        10553785.923033781
      ], 
      [
        364173, 
        618.6973679686799, 
        5415989.611952714
      ], 
      [
        364174, 
        224.00317771524, 
        3760767.332419059
      ], 
      [
        364175, 
        94.88757384414, 
        8029891.544809274
      ], 
      [
        364176, 
        197.307201861, 
        6234702.265768299
      ], 
      [
        364177, 
        94.962584178, 
        9528510.595714519
      ], 
      [
        364178, 
        35.910950977439995, 
        18433491.26234992
      ], 
      [
        364179, 
        38.34053260883999, 
        4378414.323111284
      ], 
      [
        364180, 
        22.364320275989996, 
        2812495.500159416
      ], 
      [
        364181, 
        9.586344844691999, 
        5735403.543684155
      ], 
      [
        364182, 
        14.5985994, 
        6085450.809471808
      ], 
      [
        364183, 
        1.19761488, 
        4129139.921382189
      ], 
      [
        364184, 
        15324.88733622, 
        16819156.7690127
      ], 
      [
        364185, 
        2443.425880896, 
        11453631.249280911
      ], 
      [
        364186, 
        837.6280998624, 
        10626861.126148202
      ], 
      [
        364187, 
        619.44787491048, 
        5496494.380617144
      ], 
      [
        364188, 
        222.59530293461998, 
        3772484.908089431
      ], 
      [
        364189, 
        95.34031806222, 
        4026450.520807492
      ], 
      [
        364190, 
        197.35804480392, 
        12393699.045994759
      ], 
      [
        364191, 
        93.89560207103999, 
        8011502.004224882
      ], 
      [
        364192, 
        34.82262388836, 
        18537130.784174763
      ], 
      [
        364193, 
        39.281122066032, 
        3646662.273844126
      ], 
      [
        364194, 
        22.25461612374, 
        4214680.481690008
      ], 
      [
        364195, 
        9.490847272829999, 
        2872290.1204565056
      ], 
      [
        364196, 
        14.603450399999998, 
        5998107.731048442
      ], 
      [
        364197, 
        1.1973238199999998, 
        4113124.759367764
      ], 
      [
        308096, 
        6.8063, 
        998800.6355977058
      ], 
      [
        308097, 
        6.7952, 
        998920.5831524134
      ], 
      [
        308098, 
        6.7976, 
        998973.2444810867
      ], 
      [
        345099, 
        6.6492745, 
        662580.9262539061
      ], 
      [
        345100, 
        7.355074320000001, 
        650084.4975276499
      ], 
      [
        345101, 
        17.1772272, 
        1458663.8530448088
      ], 
      [
        345102, 
        9.02889937, 
        730917.6731177379
      ], 
      [
        364100, 
        1588.47417372, 
        5372476.06854472
      ], 
      [
        364101, 
        219.52125774179999, 
        2871991.4261436323
      ], 
      [
        364102, 
        127.13037428804999, 
        4120985.3373376993
      ], 
      [
        364103, 
        73.42295186688, 
        2166490.441836292
      ], 
      [
        364104, 
        20.90606833224, 
        732465.5025579372
      ], 
      [
        364105, 
        12.50542971664, 
        2082263.9685920274
      ], 
      [
        364106, 
        23.30379340254, 
        2974012.067161903
      ], 
      [
        364107, 
        9.143665195889, 
        1991088.3307372541
      ], 
      [
        364108, 
        6.076600896701999, 
        8646674.040882234
      ], 
      [
        364109, 
        4.6573670954888, 
        1728411.3116012672
      ], 
      [
        364110, 
        2.2148275320268995, 
        918652.6238898593
      ], 
      [
        364111, 
        1.468423742618, 
        3749454.9828138943
      ], 
      [
        364112, 
        1.74260121, 
        2980513.214440966
      ], 
      [
        364113, 
        0.14392476, 
        1017049.2935065031
      ], 
      [
        364114, 
        1587.0215945527998, 
        5374833.016751165
      ], 
      [
        364115, 
        219.99581160900001, 
        2872880.2764198305
      ], 
      [
        364116, 
        127.0851476874, 
        4110178.0601845616
      ], 
      [
        364117, 
        74.90381741745, 
        2175375.4170209
      ], 
      [
        364118, 
        20.3159891025, 
        724681.6999146859
      ], 
      [
        364119, 
        12.73880800542, 
        2083822.2855407796
      ], 
      [
        364120, 
        24.419835672925, 
        2996565.6191174244
      ], 
      [
        364121, 
        9.237605978852999, 
        2001395.9013305015
      ], 
      [
        364122, 
        6.081254463941999, 
        8626709.418257697
      ], 
      [
        364123, 
        4.796836770828899, 
        1723396.1057260092
      ], 
      [
        364124, 
        2.2494862962824, 
        918309.6249333983
      ], 
      [
        364125, 
        1.4943331793235999, 
        3746270.4524441394
      ], 
      [
        364126, 
        1.7641509199999998, 
        2968474.179291472
      ], 
      [
        364127, 
        0.145046125, 
        1016520.8332891464
      ], 
      [
        364198, 
        2272.6349986648, 
        3346738.5154271275
      ], 
      [
        364199, 
        81.0865067369, 
        421917.54639297165
      ], 
      [
        364200, 
        43.82949336163999, 
        1338628.8846211452
      ], 
      [
        364201, 
        5.498225109691999, 
        640180.0921142846
      ], 
      [
        364202, 
        2.6966786078568, 
        575003.1574845314
      ], 
      [
        364203, 
        0.5128155586736001, 
        246687.90270602703
      ], 
      [
        364204, 
        2273.199495756, 
        3350770.794517869
      ], 
      [
        364205, 
        81.71900876474999, 
        634977.0002092286
      ], 
      [
        364206, 
        43.858740608549994, 
        1355659.5318513121
      ], 
      [
        364207, 
        5.350863297709999, 
        641173.943863973
      ], 
      [
        364208, 
        2.7123981218243, 
        575348.5504747629
      ], 
      [
        364209, 
        0.48681223934, 
        246286.4134197235
      ], 
      [
        308092, 
        0.63197, 
        500423.9295511246
      ], 
      [
        308093, 
        0.63433, 
        500655.7231632471
      ], 
      [
        345324, 
        0.5437, 
        87928141.60143147
      ], 
      [
        345948, 
        0.0437, 
        7530807.570142055
      ], 
      [
        344772, 
        48.893137104655196, 
        5468321.336517226
      ], 
      [
        344774, 
        103.012387928604, 
        21649635.846267536
      ], 
      [
        344775, 
        119.22005393259501, 
        2781935.4515329134
      ], 
      [
        344776, 
        3.7740959620182, 
        2876691.258190773
      ], 
      [
        344778, 
        7.74718565906467, 
        2794301.976779839
      ], 
      [
        344779, 
        9.2013951411018, 
        5746836.251587605
      ], 
      [
        344780, 
        1.64032323174174, 
        2354712.8443730194
      ], 
      [
        344781, 
        3.7099912157216997, 
        2304268.3309719763
      ], 
      [
        344782, 
        4.3470565116762, 
        4576352.875409368
      ], 
      [
        364137, 
        4.759698352626001, 
        6854242.165085026
      ], 
      [
        364138, 
        2.236223235708, 
        918259.6501284568
      ], 
      [
        364139, 
        1.4918400719215004, 
        1860875.9646869525
      ], 
      [
        364140, 
        1.76278578, 
        2978478.47471847
      ], 
      [
        364141, 
        0.144568326, 
        1018271.2946459055
      ], 
      [
        364210, 
        2274.188130144, 
        3350829.7934992807
      ], 
      [
        364211, 
        81.63706321344, 
        629985.8015463166
      ], 
      [
        364212, 
        43.869395516499, 
        1352443.6711884253
      ], 
      [
        364213, 
        5.40565221651, 
        642791.9585025609
      ], 
      [
        364214, 
        2.7402892055049, 
        577537.0114842653
      ], 
      [
        364215, 
        0.4985289951103, 
        246056.02946472168
      ], 
      [
        308094, 
        0.63347, 
        500312.36827397346
      ], 
      [
        345123, 
        0.57555941, 
        194264784.82896534
      ], 
      [
        346193, 
        0.0470363709, 
        3019177.1886174725
      ], 
      [
        346564, 
        0.57555941, 
        87621921.9364891
      ], 
      [
        346573, 
        0.0470363709, 
        7553983.60452647
      ], 
      [
        346562, 
        0.57555941, 
        4381802.780913353
      ], 
      [
        346571, 
        0.0470363709, 
        377952.375829602
      ], 
      [
        345211, 
        0.033417, 
        135835.56842251867
      ], 
      [
        345212, 
        0.052685, 
        215966.7606081828
      ], 
      [
        345217, 
        0.055438, 
        351681.09527895926
      ], 
      [
        346343, 
        0.23844, 
        1164668.9064113237
      ], 
      [
        346344, 
        0.22999685520000002, 
        2564781.8500064365
      ], 
      [
        346345, 
        0.054667, 
        267206.1238343416
      ], 
      [
        346909, 
        0.033417, 
        405422.21197112266
      ], 
      [
        346912, 
        0.052685, 
        647143.7499126464
      ], 
      [
        346915, 
        0.055438, 
        1145051.4639352295
      ], 
      [
        346919, 
        0.01507, 
        116101.0807949892
      ], 
      [
        346923, 
        0.014534285999999999, 
        256847.34727445943
      ], 
      [
        346927, 
        0.00345, 
        26604.58298992287
      ]
    ]
  }
}